{
    "errors_count":0,
    "errors":[],
    "result":{
        "history":[
            {
                "timestamp":1570914245,
                "reason":"Активное участие",
                "rating":"+1"
            },
            {
                "timestamp":1570814245,
                "reason":"Активное участие",
                "rating":"+1"
            },
            {
                "timestamp":1570714245,
                "reason":"Решение задачи",
                "rating":"+5"
            },
            {
                "timestamp":1570614245,
                "reason":"Составление задачи",
                "rating":"+100"
            },
            {
                "timestamp":1570514245,
                "reason":"Победа в партии",
                "rating":"+30"
            },
            {
                "timestamp":1570414245,
                "reason":"Поражение в партии",
                "rating":"-10"
            },
            {
                "timestamp":1570314245,
                "reason":"Пассивное участие",
                "rating":"-1"
            },
            {
                "timestamp":1570214245,
                "reason":"Активное участие",
                "rating":"+1"
            },
            {
                "timestamp":1570114245,
                "reason":"Активное участие",
                "rating":"+1"
            },
            {
                "timestamp":1570014245,
                "reason":"Активное участие",
                "rating":"+1"
            }
        ]
    },
    "session_id":"17a938271d82987e02847503957"
}
